…
Once you go above (around) 40-50 bins, you’ll notice some points stick out.

What is happening? Looks like the age data is not very accurate; good portion of the age information seems to have been rounded off to the nearest 5. In the below data, the number of records at the intervals of 5 (20, 25, 30, 35, 40, 45, 50) seems to be disproportionately higher compared to number of records for other ages. Here are the ages with top population count: 

df %>%
  group_by(Driver_Age) %>%
  summarise(count = n()) %>%
  arrange(desc(count))

## # A tibble: 86 x 2
##    Driver_Age count
##         <dbl> <int>
##  1         30  4984
##  2         25  4469
##  3         40  3673
##  4         35  3418
##  5         45  2685
##  6         23  2298
##  7         26  2281
##  8         50  2248
##  9         24  2191
## 10         20  2177
## # ... with 76 more rows
…
